<?xml version="1.0" encoding="UTF-8" standalone="no"?>
<svg
   xmlns:dc="http://purl.org/dc/elements/1.1/"
   xmlns:cc="http://creativecommons.org/ns#"
   xmlns:rdf="http://www.w3.org/1999/02/22-rdf-syntax-ns#"
   xmlns:svg="http://www.w3.org/2000/svg"
   xmlns="http://www.w3.org/2000/svg"
   xmlns:sodipodi="http://sodipodi.sourceforge.net/DTD/sodipodi-0.dtd"
   xmlns:inkscape="http://www.inkscape.org/namespaces/inkscape"
   width="1200"
   height="640"
   version="1.1"
   viewBox="0 0 317.5 169.33"
   id="svg1841"
   sodipodi:docname="vertical.svg"
   inkscape:version="1.0.2 (e86c870879, 2021-01-15)">
  <metadata
     id="metadata1847">
    <rdf:RDF>
      <cc:Work
         rdf:about="">
        <dc:format>image/svg+xml</dc:format>
        <dc:type
           rdf:resource="http://purl.org/dc/dcmitype/StillImage" />
        <dc:title />
      </cc:Work>
    </rdf:RDF>
  </metadata>
  <defs
     id="defs1845" />
  <sodipodi:namedview
     pagecolor="#ffffff"
     bordercolor="#666666"
     borderopacity="1"
     objecttolerance="10"
     gridtolerance="10"
     guidetolerance="10"
     inkscape:pageopacity="0"
     inkscape:pageshadow="2"
     inkscape:window-width="1366"
     inkscape:window-height="724"
     id="namedview1843"
     showgrid="false"
     inkscape:zoom="0.2585937"
     inkscape:cx="603.07612"
     inkscape:cy="678.77105"
     inkscape:window-x="0"
     inkscape:window-y="0"
     inkscape:window-maximized="1"
     inkscape:current-layer="svg1841"
     inkscape:document-rotation="0" />
  <g
     id="g847"
     transform="matrix(0.04244556,0,0,0.04244556,134.06097,16.101296)"
     style="opacity:0.995812;fill:#000000;fill-opacity:1">
    <path
       d="m 635.716,1604.91 c -23.622,6.883 -42.734,1.76 -58.047,-17.821 -5.357,-6.851 -37.873,-2.604 -42.568,5.626 -7.299,12.792 -19.17,12.346 -29.999,10.489 C 408.274,1586.6 379.674,1512.231 350.697,1472.842 289.606,1389.801 210.297,1275.951 151.902,1156.333 99.529,1049.062 75.422,1024.192 46.76,913.417 30.958,852.346 29.125,861.238 37.095,824.422 40.497,808.705 41.696,790.857 35.165,774.872 17.75,732.253 23.01,683.308 24.304,638.421 30.773,414.012 50.983,309.947 74.239,224.295 86.648,178.593 116.203,136.7 150.83,104.448 249.31,12.724 562.727,2.107 693.492,9.878 c 62.046,3.687 122.838,14.444 183.515,25.648 38.44,7.098 75.409,20.734 111.249,38.039 128.515,62.051 128.674,208.305 148.301,330.106 9.372,58.156 6.574,117.701 6.599,176.383 0.079,182.874 2.056,242.423 -23.631,271.576 -14.593,16.563 -14.807,42.181 -18.336,62.856 -9.47,55.495 -13.1,117.536 -81.03,231.526 -18.512,31.064 -39.46,60.526 -59.131,90.814 -128.739,198.22 -197.726,341.098 -325.312,368.084 z m 187.24,-689.606 c 1.651,2.889 156.074,25.454 202.463,-10.742 16.552,-12.915 32.072,-27.506 49.871,-38.366 63.013,-38.448 49.563,-209.071 48.588,-265.974 -3.004,-175.273 -25.013,-294.548 -29.243,-323.871 -12.512,-86.72 -71.02,-173.12 -157.584,-199.105 C 786.064,31.923 662.89,30.084 554.745,32.969 520.921,33.871 409.134,43.533 373.89,48.774 135.422,84.235 65.042,145.737 48.871,614.115 c -1.474,42.681 -8.599,92.783 3.609,134.328 2.546,8.665 1.933,18.609 6.703,26.529 4.509,7.487 13.058,11.302 18.261,18.219 17.829,23.702 7.761,68.285 84.92,104.124 36.368,16.893 121.194,0.824 183.308,-4.714 1.357,-0.121 13.569,1.274 13.313,1.684 -8.205,13.124 -27.064,14.978 -41.34,16.982 -62.024,8.706 -59.379,9.523 -107.015,7.48 4.971,37.983 43.064,82.633 78.083,105.983 20.467,13.647 44.092,20.915 66.705,30.158 34.616,14.151 68.501,27.366 104.538,1.563 21.329,-15.272 24.463,-36.583 4.014,-52.8 -5.014,-3.977 -8.56,-8.296 -7.697,-15.025 8.326,-64.91 12.54,-69.401 -2.626,-82.044 -6.161,-5.125 -21.323,19.792 -24.772,23.9 -9.899,11.792 -15.411,27.279 -14.908,42.69 0.182,5.586 -2.499,16.615 -11.121,10.541 -11.498,-8.1 -21.5,-17.872 -25.287,-32.082 -10.448,-39.195 7.805,-68.05 26.124,-73.743 25.532,-7.934 43.484,-23.196 48.732,-49.016 13.381,-65.829 50.148,-220.632 20.138,-275.805 -16.697,-30.698 -31.844,-56.869 -57.037,-81.481 -86.732,-84.728 -107.236,-60.442 -157.574,-92.897 42.9,-30.763 127.21,22.071 169.446,58.298 65.42,56.112 126.858,97.29 113.633,258.55 -5.018,61.182 -7.349,122.703 -13.676,183.812 -5.328,51.451 -31.701,108.369 -23.131,148.093 6.291,29.157 90.47,46.476 122.302,19.374 24.564,-20.914 28.09,-20.274 45.551,7.831 25.722,41.402 73.626,37.91 120.125,22.896 12.885,-4.161 26.597,-7.35 37.993,-14.206 24.581,-14.786 47.604,-31.997 65.887,-54.669 27.541,-34.153 55.339,-60.103 28.637,-64.907 -15.681,-2.821 -31.84,-1.587 -47.652,-4.057 -18.101,-2.826 -43.985,-6.703 -54.101,-24.4 z m -226.735,192.937 c -6.413,-7.33 -13.415,-15.035 -22.85,-17.453 -43.62,-11.177 -46.985,72.108 -100.716,71.189 -75.385,-1.289 -191.303,-52.065 -230.229,-92.897 -27.351,-28.69 -33.384,-60.018 -63.937,-115.239 -5.729,-10.354 -10.789,-22.93 -17.919,-32.282 -6.471,-8.488 -15.766,-11.437 -13.903,2.409 12.656,94.064 85.186,166.593 150.309,229.329 28.009,26.982 76.848,89.746 214.905,106.637 31.19,3.816 62.728,3.875 94.002,-0.418 16.024,-2.2 25.49,19.007 42.706,11.2 -0.706,8.002 -10.152,16.764 -19.804,29.216 -11.548,14.899 -18.565,43.329 -14.191,62.143 7.844,33.742 26.847,49.679 7.346,117.458 -14.038,48.791 -40.182,115.808 9.322,102.594 99.329,-26.512 135.624,-96.181 225.184,-222.81 20.943,-29.611 101.252,-162.049 101.935,-163.073 22.784,-34.12 45.978,-68.25 62.851,-105.924 15.16,-33.849 32.923,-66.484 43.993,-102.239 10.749,-34.718 10.364,-71.536 21.885,-105.968 0.868,-2.595 -18.902,-7.036 -27.329,11.035 -16.604,35.604 -25.152,74.053 -41.775,110.042 -38.337,82.996 -191.845,298.513 -209.414,333.461 -1.841,3.662 -4.992,7.975 -10.505,7.545 -7.593,-0.592 56.211,-87.118 69.802,-119.55 19.319,-46.101 50.056,-74.191 35.971,-86.43 -7.952,-6.889 -23.928,18.608 -31.648,18.615 -0.174,-0.974 -0.227,-3.042 0.606,-3.788 32.904,-29.496 94.809,-92.736 111.536,-125.718 44.163,-87.082 20.197,-103.493 6.187,-82.464 -88.049,132.161 -113.65,218.645 -316.134,228.426 -21.088,1.019 -41.396,10.934 -61.619,10.638 -36.601,-0.537 -73.574,-3.098 -109.54,-11.896 -2.205,-0.539 -3.935,-3.016 -5.887,-4.592 1.965,-1.082 3.957,-3.152 5.892,-3.101 120.412,3.208 126.792,8.797 132.621,2.467 7.698,-8.358 -3.688,-17.453 -39.653,-58.562 z M 55.206,842.134 c -11.004,4.871 13.432,60.082 16.169,68.321 22.897,68.916 10.65,44.093 38.576,104.381 41.027,88.573 133.96,269.515 221.455,386.755 48.711,65.272 83.293,152.103 168.464,176.218 55.943,15.839 -18.624,-99.063 0.428,-174.772 5.675,-22.55 20.994,-41.065 21.911,-65.764 1.004,-27.042 -4.758,-50.084 -25.151,-67.699 -10.115,-8.737 -18.028,-5.428 -55.766,-17.315 -41.754,-13.152 -94.403,-45.999 -95.451,-28.282 -4.548,76.91 -6.976,86.834 10.73,138.063 0.619,1.791 -0.4,4.715 -1.099,6.374 -15.111,1.676 -46,-92.129 -67.709,-134.646 C 217.482,1096.125 164.658,1033.724 127.711,964.933 97.448,908.588 89.199,827.086 55.206,842.134 Z"
       id="path833"
       style="fill:#000000;fill-opacity:1" />
    <path
       d="m 257.612,546.481 c 67.603,-14.477 145.595,13.516 195.873,60.874 20.117,18.949 3.138,39.166 -14.471,45.209 -41.316,14.18 -157.572,5.268 -222.673,11.178 -71.472,6.489 -49.112,7.049 -78.569,14.237 -0.282,-2.893 -1.074,-5.84 -0.772,-8.67 8.185,-76.522 35.845,-104.675 120.612,-122.828 z"
       id="path835"
       style="fill:#000000;fill-opacity:1" />
    <path
       d="m 950.286,664.078 c -136.941,-13.306 -193.816,17.871 -212.16,-23.062 -11.149,-24.879 13.573,-37.596 31.664,-49.335 28.03,-18.19 60.855,-33.27 94.308,-37.284 54.223,-6.506 144.176,15.659 160.97,63.225 8.93,25.294 -6.277,41.953 -31.211,46.759 -14.315,2.758 -29.06,1.107 -43.571,-0.303 z"
       id="path837"
       style="fill:#000000;fill-opacity:1" />
    <path
       d="m 377.668,322.296 c 70.086,18.123 126,68.003 138.07,85.363 20.828,29.954 11.564,106.164 -42.842,53.563 -66.255,-64.058 -121.745,-106.974 -214.36,-107.148 -64.46,-0.121 -99.488,43.293 -113.727,53.43 -30.84,21.957 51.593,-132.081 232.859,-85.208 z"
       id="path839"
       style="fill:#000000;fill-opacity:1" />
    <path
       d="m 675.454,451.707 c -4.536,-50.091 53.532,-80.803 92.547,-99.238 49.341,-23.314 103.841,-31.848 158.062,-27.682 80.097,6.156 123.863,93.592 119.289,98.932 -4.71,5.498 -14.971,-15.084 -17.656,-18.395 -53.471,-65.942 -165.021,-41.814 -225.354,1.395 -17.665,12.651 -35.411,25.215 -52.479,38.67 -11.824,9.321 -33.289,36.911 -50.232,33.809 -12.77,-2.337 -22.674,-10.887 -24.177,-27.491 z"
       id="path841"
       style="fill:#000000;fill-opacity:1" />
    <path
       d="M 682.387,564.943 C 681.797,505.799 760.426,450.573 809.064,418.338 877,373.312 941.9,380.725 940.502,391.713 c -2.976,23.348 -49.479,23.963 -66.106,29.739 -37.419,13 -63.349,38.468 -92.509,63.809 -31.799,27.634 -80.256,62.463 -86.755,81.012 -1.368,3.905 -4.066,8.071 -8.877,5.499 -2.324,-1.242 -3.104,-5.372 -3.868,-6.829 z"
       id="path843"
       style="fill:#000000;fill-opacity:1" />
    <path
       d="m 750.481,960.615 c 3.236,-3.537 -5.7,-33.147 -19.996,-49.495 -8.824,-10.091 -18.096,-11.936 -29.463,-17.242 -5.675,-2.65 -7.973,-8.62 -4.009,-13.788 3.542,-4.618 7.299,-3.617 12.514,-1.318 19.022,8.387 34.484,20.295 42.076,40.136 5.319,13.899 11.119,28.328 -1.122,41.707 z"
       id="path845"
       style="fill:#000000;fill-opacity:1" />
  </g>
  <path
     id="path3919"
     sodipodi:nodetypes="sssscscccccccsscssssssscscccccccccccsscsscccsscscccsssscccssssscccccccccscccscscccccccssssscc"
     style="fill:#4595ca;fill-opacity:1;stroke-width:0.21194"
     inkscape:connector-curvature="0"
     d="m 171.00291,120.2953 c 0.2378,-0.26276 0.21643,-0.28979 -1.9297,-2.4388 -1.83409,-1.83647 -2.17028,-2.233 -2.17028,-2.55981 0,-0.32359 0.29214,-0.6796 1.78563,-2.17601 2.39662,-2.40108 2.05807,-2.42629 4.84963,0.36153 2.14633,2.14356 2.15416,2.14971 2.39663,1.88186 0.23871,-0.26378 0.23171,-0.3122 -0.38182,-2.63802 l -0.62497,-2.3693 -1.24042,-1.26003 -1.24046,-1.26002 -2.34956,-0.54869 -2.34958,-0.5487 -7.41539,-7.392492 -7.41539,-7.392498 -0.42739,-1.782921 c -0.78389,-3.27003 -0.63651,-2.965041 -2.07363,-4.291153 l -1.28242,-1.18333 -2.32711,-0.650115 c -2.30633,-0.644353 -2.32922,-0.647884 -2.5827,-0.397237 -0.25385,0.251043 -0.23995,0.268744 1.91732,2.439653 1.81567,1.827053 2.17302,2.249115 2.17302,2.566399 0,0.314977 -0.31532,0.695557 -1.85068,2.233634 -1.39579,1.398279 -1.93062,1.853971 -2.176,1.853971 -0.24721,0 -0.84503,-0.51909 -2.49158,-2.163492 -2.16858,-2.165813 -2.45109,-2.356149 -2.66558,-1.797083 -0.0433,0.112725 0.19956,1.277951 0.5396,2.58928 l 0.61832,2.384329 1.25066,1.235736 1.25071,1.235746 2.36398,0.555124 2.36399,0.555104 7.39419,7.419415 7.3942,7.41943 0.55059,2.36461 0.55061,2.36463 1.30143,1.19987 1.30137,1.19989 2.23364,0.61883 c 1.22855,0.34036 2.29766,0.6228 2.37607,0.62767 0.0782,0.005 0.25055,-0.11073 0.38281,-0.25684 z m -24.24815,-1.56889 c 0.76078,-0.35201 1.31748,-0.86244 5.58908,-5.12408 l 4.7441,-4.73307 -0.77315,-0.78131 -0.77316,-0.7813 -1.97317,1.94759 c -1.7964,1.77308 -2.01451,1.9476 -2.43413,1.9476 -0.3432,0 -0.52986,-0.0876 -0.73042,-0.34251 -0.56521,-0.71851 -0.42761,-0.96236 1.82549,-3.23483 l 1.80692,-1.82258 -0.81348,-0.8011 -0.81352,-0.80108 -2.04249,1.9412 c -2.20229,2.09305 -2.44708,2.22623 -3.05132,1.65856 -0.20344,-0.19112 -0.30087,-0.43009 -0.30087,-0.73798 0,-0.41291 0.18165,-0.63836 1.94928,-2.4193 l 1.94924,-1.96396 -0.78104,-0.7729 -0.78107,-0.77289 -4.68304,4.67731 c -5.11541,5.10904 -5.31823,5.36571 -5.60965,7.09536 -0.20372,1.20978 0.0163,2.11383 0.75239,3.09306 0.6286,0.83622 1.89729,2.06322 2.64057,2.55389 1.19473,0.78854 2.83259,0.85499 4.30324,0.17455 z m 15.07874,-22.342815 -4.48467,-4.401154 -0.61959,0.604729 -0.61955,0.604728 4.4531,4.454574 4.45309,4.454578 0.65108,-0.65808 0.65106,-0.65807 z m 5.42929,-3.349926 3.25053,-3.348454 1.54219,-0.504112 1.54221,-0.504094 1.35763,-1.975158 c 0.74671,-1.086337 1.37757,-2.035023 1.40197,-2.108218 0.0245,-0.07316 -0.59913,-0.731087 -1.38565,-1.462032 l -1.42998,-1.328976 -2.00721,1.438659 -2.0072,1.438645 -0.49958,1.430917 -0.49958,1.430916 -3.41119,3.410986 -3.41119,3.410976 1.0034,1.009301 c 0.55186,0.555122 1.07089,1.009317 1.1534,1.009317 0.0826,0 1.61271,-1.506802 3.40038,-3.348446 z" />
  <path
     d="M 16.833176,153.45512 V 137.7381 q 0,-2.9004 -2.061126,-2.9004 -0.32331,0 -0.848697,0.0784 -0.767866,0.11758 -1.091183,0.11758 -1.293253,0 -1.293253,-1.29342 0,-1.3718 1.778225,-1.3718 0.282894,0 0.606211,0.0392 l 1.980295,0.23517 q 0.969944,0.11758 2.424852,0.11758 1.010351,0 2.424851,-0.11758 3.313963,-0.27437 5.011358,-0.27437 2.586505,0 4.445562,0.39195 2.667337,0.54873 4.162661,2.43006 1.535738,1.88135 1.535738,4.54658 0,3.68429 -2.626921,5.64401 -2.586507,1.95974 -7.51704,1.95974 h -2.869408 q -1.333669,0 -1.576155,-0.0392 h -0.08082 q -0.646626,0 -0.848697,0.23517 -0.161662,0.19597 -0.161662,0.97986 v 0.78388 q 0,4.97772 0.282902,6.03597 0.323316,1.05826 1.778224,1.05826 0.444557,0 0.848697,-0.11758 0.889112,-0.0784 1.091183,-0.0784 1.252838,0 1.252838,1.25422 0,1.411 -1.778218,1.411 0,0 -0.565803,-0.0784 l -2.020711,-0.27436 q -0.848696,-0.11758 -2.546091,-0.11758 -1.414499,0 -2.303611,0.11758 l -2.34402,0.31356 q -0.08083,0 -0.242487,0.0392 -0.161654,0 -0.282901,0 -1.818633,0 -1.818633,-1.37182 0,-0.54872 0.363725,-0.90148 0.363725,-0.39194 0.889113,-0.39194 0.444555,0 1.091183,0.11759 0.2829,0.0784 0.848696,0.0784 2.061126,0 2.061126,-2.93959 z m 3.677689,-17.75514 q -0.282901,0.39194 -0.282901,2.1557 v 5.8008 q 0,1.05825 1.535738,1.21503 -0.121238,0 2.344028,0 2.869408,0 4.768872,-0.43114 3.596865,-0.82309 3.596865,-4.58577 0,-4.97771 -6.547103,-4.97771 -4.849704,0 -5.415499,0.82309 z"
     style="font-style:normal;font-variant:normal;font-weight:normal;font-stretch:normal;font-size:50.8px;line-height:52.9166px;font-family:'American Typewriter';-inkscape-font-specification:'American Typewriter';font-variant-ligatures:normal;font-variant-caps:normal;font-variant-numeric:normal;text-align:start;letter-spacing:0px;word-spacing:0px;writing-mode:lr-tb;text-anchor:start;white-space:pre;shape-inside:url(#rect1503);fill:#000000;fill-opacity:1;stroke:none;stroke-width:0.20729px;stroke-linecap:butt;stroke-linejoin:miter;stroke-opacity:1"
     id="path1534" />
  <path
     d="m 44.233963,140.20736 v 1.05824 q 2.101534,-2.8612 5.617568,-2.8612 2.828992,0 4.566801,1.56779 1.778226,1.52859 1.778226,3.95865 0,1.72456 -0.889113,2.822 -0.889113,1.05826 -2.34402,1.05826 -0.929528,0 -1.576155,-0.54872 -0.646626,-0.54872 -0.646626,-1.33262 0,-0.62711 0.484971,-1.09745 0.484972,-0.50953 1.131598,-0.50953 0.12124,0 0.525381,0.11759 0.242486,-0.47034 0.242486,-0.86228 0,-1.13664 -1.050767,-1.92053 -1.010353,-0.7839 -2.546091,-0.7839 -3.152309,0 -4.203077,2.74362 -0.646627,1.68537 -0.646627,5.0953 v 2.58684 q 0,2.62604 0.04039,2.93959 0.202071,2.2341 1.252838,2.2341 0.525387,0 1.091183,-0.15678 0.444556,-0.11758 0.767865,-0.11758 1.293261,0 1.293261,1.25422 0,1.37181 -1.656986,1.37181 h -0.161655 q -0.606211,0 -1.859056,-0.15678 -1.212422,-0.11759 -1.818632,-0.11759 -1.616571,0 -2.546099,0.0784 l -2.263196,0.19597 q -1.656978,0 -1.656978,-1.37182 0,-1.21503 1.535738,-1.21503 0.404141,0 0.606212,0.0392 l 0.60621,0.11758 q 0.404149,0.0784 0.565804,0.0784 1.010351,0 1.091182,-1.80296 l 0.08083,-1.99891 -0.121247,-8.89717 q -0.121239,-2.31249 -1.212422,-2.31249 -0.323317,0 -0.889112,0.11759 -0.565803,0.11758 -0.889112,0.11758 -1.333669,0 -1.333669,-1.25423 0,-1.37181 1.737809,-1.37181 0.404141,0 1.212422,0.11759 0.808288,0.0784 1.212429,0.0784 0.32331,0 1.050767,-0.0784 0.323318,-0.0784 0.767873,-0.0784 1.050768,0 1.050768,1.09745 z"
     style="font-style:normal;font-variant:normal;font-weight:normal;font-stretch:normal;font-size:50.8px;line-height:52.9166px;font-family:'American Typewriter';-inkscape-font-specification:'American Typewriter';font-variant-ligatures:normal;font-variant-caps:normal;font-variant-numeric:normal;text-align:start;letter-spacing:0px;word-spacing:0px;writing-mode:lr-tb;text-anchor:start;white-space:pre;shape-inside:url(#rect1503);fill:#000000;fill-opacity:1;stroke:none;stroke-width:0.20729px;stroke-linecap:butt;stroke-linejoin:miter;stroke-opacity:1"
     id="path1536" />
  <path
     d="m 64.521849,147.30157 v 5.0953 q 0,1.95973 0.04039,2.31248 0.20207,1.76376 1.091183,1.76376 0.20207,0 1.010352,-0.19597 0.202077,-0.0784 0.606218,-0.0784 1.535739,0 1.535739,1.29342 0,0.54872 -0.525388,0.94067 -0.484971,0.39195 -1.252837,0.39195 -0.646626,0 -1.980295,-0.15678 -1.293254,-0.19598 -1.93988,-0.19598 -1.050774,0 -2.344028,0.15679 -1.576154,0.19597 -2.101534,0.19597 -1.61657,0 -1.61657,-1.33262 0,-1.29342 1.374084,-1.29342 0.32331,0 0.929528,0.11758 0.646627,0.11758 0.969937,0.11758 0.969943,0 1.172013,-2.50844 0,-0.15678 0,-3.40994 v -3.21395 q 0,-3.25315 0,-3.40993 -0.20207,-2.46926 -1.212429,-2.46926 -0.32331,0 -0.929521,0.15678 -0.565803,0.11758 -0.848697,0.11758 -1.454915,0 -1.454915,-1.25423 0,-1.33261 1.778225,-1.33261 0.767873,0 1.091183,0.0392 1.293253,0.15678 1.656985,0.15678 0.32331,0 0.969937,-0.0784 0.687042,-0.11759 1.010359,-0.11759 1.172005,0 1.172005,1.52859 0,0.15678 -0.04039,0.47033 -0.04039,0.31356 -0.04039,0.47034 -0.04039,0.31356 -0.08083,2.43006 -0.04039,1.60698 -0.04039,3.29234 z m -2.101534,-10.26898 q -0.929528,0 -1.61657,-0.62711 -0.646627,-0.66631 -0.646627,-1.56778 0,-0.90148 0.646627,-1.52859 0.687042,-0.62712 1.61657,-0.62712 0.929528,0 1.576155,0.62712 0.687034,0.62711 0.687034,1.52859 0,0.90147 -0.687034,1.56778 -0.646627,0.62711 -1.576155,0.62711 z"
     style="font-style:normal;font-variant:normal;font-weight:normal;font-stretch:normal;font-size:50.8px;line-height:52.9166px;font-family:'American Typewriter';-inkscape-font-specification:'American Typewriter';font-variant-ligatures:normal;font-variant-caps:normal;font-variant-numeric:normal;text-align:start;letter-spacing:0px;word-spacing:0px;writing-mode:lr-tb;text-anchor:start;white-space:pre;shape-inside:url(#rect1503);fill:#000000;fill-opacity:1;stroke:none;stroke-width:0.20729px;stroke-linecap:butt;stroke-linejoin:miter;stroke-opacity:1"
     id="path1538" />
  <path
     d="m 76.524838,143.73487 4.728464,12.2287 4.566801,-12.2287 q 0.40414,-1.09745 0.40414,-1.41101 0,-0.86228 -0.848698,-0.86228 -0.32331,0 -0.969938,0.15678 -0.606217,0.11759 -0.929527,0.11759 -1.333666,0 -1.333666,-1.29343 0,-1.37181 1.939884,-1.37181 0.08085,0 0.323309,0 0.20207,0.0392 0.32331,0.0392 l 1.697395,0.23517 q 0.565807,0.0784 1.172016,0.0784 0.808278,0 2.667341,-0.19597 1.131596,-0.11759 1.616565,-0.11759 1.737814,0 1.737814,1.29342 0,1.29343 -1.414504,1.29343 -0.444558,0 -0.646628,-0.0784 -0.606209,-0.11759 -0.848697,-0.11759 -0.727458,0 -1.495317,1.88135 l -5.698403,14.11004 q -0.727459,1.80295 -2.465268,1.80295 -1.656985,0 -2.384436,-1.80295 l -5.819646,-14.50199 q -0.565796,-1.4502 -1.333669,-1.4502 -0.282901,0 -0.848696,0.11758 -0.565796,0.11759 -0.848697,0.11759 -1.333669,0 -1.333669,-1.21503 0,-1.411 1.859048,-1.411 0.323318,0 0.484973,0.0392 l 1.6974,0.15678 q 0.848697,0.0784 1.697395,0.0784 0.687041,0 2.02071,-0.11758 l 1.333668,-0.11759 q 0.202071,-0.0392 0.565796,-0.0392 1.778225,0 1.778225,1.33261 0,1.25423 -1.535739,1.25423 -0.484972,0 -0.687042,-0.0392 -0.767866,-0.15677 -0.969944,-0.15677 -0.646626,0 -0.646626,0.54871 0,0.27437 0.161662,0.7839 z"
     style="font-style:normal;font-variant:normal;font-weight:normal;font-stretch:normal;font-size:50.8px;line-height:52.9166px;font-family:'American Typewriter';-inkscape-font-specification:'American Typewriter';font-variant-ligatures:normal;font-variant-caps:normal;font-variant-numeric:normal;text-align:start;letter-spacing:0px;word-spacing:0px;writing-mode:lr-tb;text-anchor:start;white-space:pre;shape-inside:url(#rect1503);fill:#000000;fill-opacity:1;stroke:none;stroke-width:0.20729px;stroke-linecap:butt;stroke-linejoin:miter;stroke-opacity:1"
     id="path1540" />
  <path
     d="m 112.17015,159.17753 q -3.31397,0 -4.08183,-2.78281 -2.06113,2.93959 -6.46628,2.93959 -3.273543,0 -5.253846,-1.56778 -1.939875,-1.56778 -1.939875,-4.19383 0,-3.25314 2.86941,-4.78173 1.091178,-0.58792 1.859048,-0.7447 0.80829,-0.19597 3.192723,-0.47033 3.39479,-0.35276 4.40515,-0.97987 1.05076,-0.62711 1.05076,-2.31248 0,-1.60698 -1.172,-2.50845 -1.13161,-0.94067 -3.19273,-0.94067 -1.81864,0 -3.39479,0.97987 -0.606213,0.39194 -0.606213,0.82308 0,0.15677 0.36373,0.39195 0.565793,0.39194 0.565793,1.33261 0,0.78389 -0.606203,1.29342 -0.5658,0.50953 -1.454919,0.50953 -1.050767,0 -1.778225,-0.70551 -0.687038,-0.70549 -0.687038,-1.72455 0,-2.1949 2.222774,-3.76268 2.263201,-1.56779 5.455921,-1.56779 7.35538,0 7.35538,6.85905 v 7.91731 q 0,1.88134 0.0809,2.23409 0.24249,1.37181 1.37407,1.37181 1.41451,0 1.41451,-2.50846 v -1.92053 q 0,-1.25422 1.25284,-1.25422 1.33366,0 1.33366,1.88133 v 0.19598 l -0.0404,2.23409 q -0.0808,3.76268 -4.12224,3.76268 z m -4.48597,-7.79972 0.0404,-2.78282 q -0.88912,0.7839 -1.89947,1.09745 -0.96994,0.31355 -3.51604,0.54873 -4.607215,0.43114 -4.607215,3.29235 0,1.48939 1.091182,2.35167 1.1316,0.86228 3.031073,0.86228 2.70775,0 4.24348,-1.41101 1.57616,-1.4502 1.61658,-3.95865 z"
     style="font-style:normal;font-variant:normal;font-weight:normal;font-stretch:normal;font-size:50.8px;line-height:52.9166px;font-family:'American Typewriter';-inkscape-font-specification:'American Typewriter';font-variant-ligatures:normal;font-variant-caps:normal;font-variant-numeric:normal;text-align:start;letter-spacing:0px;word-spacing:0px;writing-mode:lr-tb;text-anchor:start;white-space:pre;shape-inside:url(#rect1503);fill:#000000;fill-opacity:1;stroke:none;stroke-width:0.20729px;stroke-linecap:butt;stroke-linejoin:miter;stroke-opacity:1"
     id="path1542" />
  <path
     d="m 129.34614,145.73379 q 0,-1.56778 2.02072,-1.80295 -0.20208,-1.37181 -1.37409,-2.1557 -1.13159,-0.7839 -2.95024,-0.7839 -2.78857,0 -4.48597,2.15571 -1.6974,2.1557 -1.6974,5.72241 0,3.68428 1.57616,5.8008 1.61657,2.07731 4.44556,2.07731 1.77823,0 3.07148,-0.97987 1.33367,-0.97986 1.81864,-2.70442 0.40414,-1.37181 0.48497,-1.56779 0.44455,-0.78389 1.29325,-0.78389 0.68704,0 1.1316,0.43114 0.44455,0.43114 0.44455,1.09745 0,0.97987 -0.64662,2.35168 -0.64663,1.3718 -1.53575,2.27328 -2.38443,2.46926 -6.18337,2.46926 -4.12224,0 -6.66833,-2.82201 -2.50568,-2.82201 -2.50568,-7.40778 0,-4.86013 2.5865,-7.76052 2.62693,-2.9396 6.95125,-2.9396 3.23313,0 5.37508,1.72457 2.14196,1.68537 2.14196,4.3114 0,1.4502 -0.8487,2.39087 -0.80829,0.94067 -2.10154,0.94067 -1.01035,0 -1.6974,-0.58792 -0.64663,-0.58792 -0.64663,-1.4502 z"
     style="font-style:normal;font-variant:normal;font-weight:normal;font-stretch:normal;font-size:50.8px;line-height:52.9166px;font-family:'American Typewriter';-inkscape-font-specification:'American Typewriter';font-variant-ligatures:normal;font-variant-caps:normal;font-variant-numeric:normal;text-align:start;letter-spacing:0px;word-spacing:0px;writing-mode:lr-tb;text-anchor:start;white-space:pre;shape-inside:url(#rect1503);fill:#000000;fill-opacity:1;stroke:none;stroke-width:0.20729px;stroke-linecap:butt;stroke-linejoin:miter;stroke-opacity:1"
     id="path1544" />
  <path
     d="m 144.54182,142.83339 4.64763,13.24777 4.93052,-13.05179 q 0.20207,-0.54874 0.20207,-0.86229 0,-0.6663 -0.92951,-0.6663 -0.48497,0 -0.76788,0.0784 -0.64662,0.0784 -0.84869,0.0784 -1.33367,0 -1.33367,-1.25422 0,-1.33262 1.73781,-1.33262 0.24248,0 0.80829,0.0784 l 1.4549,0.19597 q 0.5658,0.0784 1.21243,0.0784 0.68704,0 2.0207,-0.15678 1.33368,-0.15678 2.02072,-0.15678 1.7378,0 1.7378,1.29342 0,1.25423 -1.33366,1.25423 -0.40414,0 -0.60621,-0.0784 -0.52539,-0.11759 -0.72746,-0.11759 -0.76787,0 -1.57616,1.99893 l -5.49633,13.32615 q -1.81863,4.42899 -3.4352,6.42792 -2.74816,3.40992 -6.87041,3.40992 -2.46527,0 -4.16266,-1.21503 -1.65698,-1.21503 -1.65698,-2.93959 0,-1.21504 0.72745,-1.99893 0.72746,-0.74469 1.89947,-0.74469 0.92953,0 1.53574,0.50953 0.60621,0.54872 0.60621,1.33261 0,1.25422 -1.17201,1.60698 0.60622,0.86227 2.30361,0.86227 2.14195,0 3.83934,-1.56777 1.73782,-1.52859 1.73782,-3.44912 0,-0.97988 -1.09119,-3.6451 l -4.44556,-10.89609 q 0,0 -0.48497,-1.25423 -0.68704,-1.76376 -1.57615,-1.76376 -0.24249,0 -0.88911,0.11759 -0.60622,0.11758 -0.80829,0.11758 -1.41449,0 -1.41449,-1.25423 0,-1.33261 1.85905,-1.33261 0.60621,0 0.92953,0.0392 l 1.61656,0.19597 q 0.0404,0 0.32332,0 0.28289,0.0392 0.48497,0.0392 1.45491,0 3.11188,-0.15678 1.25285,-0.11759 1.657,-0.11759 1.69738,0 1.69738,1.29343 0,1.29342 -1.53573,1.29342 -0.24249,0 -0.76787,-0.0784 -0.52539,-0.11759 -0.76787,-0.11759 -0.5658,0 -0.5658,0.54872 0,0.31355 0.16166,0.7839 z"
     style="font-style:normal;font-variant:normal;font-weight:normal;font-stretch:normal;font-size:50.8px;line-height:52.9166px;font-family:'American Typewriter';-inkscape-font-specification:'American Typewriter';font-variant-ligatures:normal;font-variant-caps:normal;font-variant-numeric:normal;text-align:start;letter-spacing:0px;word-spacing:0px;writing-mode:lr-tb;text-anchor:start;white-space:pre;shape-inside:url(#rect1503);fill:#000000;fill-opacity:1;stroke:none;stroke-width:0.20729px;stroke-linecap:butt;stroke-linejoin:miter;stroke-opacity:1"
     id="path1546" />
  <path
     d="m 173.59961,153.25915 0.0808,-2.50845 q 0.0404,-1.60698 1.45492,-1.60698 1.41448,0 1.41448,1.80295 0,4.27221 -1.13159,5.95758 -1.53574,2.27328 -5.05178,2.27328 -3.23313,0 -4.60721,-1.99892 -1.01035,-1.45021 -1.01035,-4.93852 v -9.4067 q 0,-0.82308 -0.76788,-0.82308 h -1.29325 q -0.64662,0 -1.09118,-0.39195 -0.40414,-0.43114 -0.40414,-1.01906 0,-0.54872 0.40414,-0.97986 0.44456,-0.43114 0.96994,-0.43114 h 1.57616 q 0.68704,0 0.68704,-0.7447 v -4.03704 q 0,-1.4894 1.57614,-1.4894 1.45492,0 1.45492,1.4894 v 4.19382 q 0,0.58792 0.72745,0.58792 h 4.40514 q 1.53575,0 1.53575,1.3718 0,1.45021 -1.65699,1.45021 h -4.44555 q -0.5658,0 -0.5658,0.82308 v 9.64187 q 0,4.11543 2.78858,4.11543 2.82899,0 2.95023,-3.33154 z"
     style="font-style:normal;font-variant:normal;font-weight:normal;font-stretch:normal;font-size:50.8px;line-height:52.9166px;font-family:'American Typewriter';-inkscape-font-specification:'American Typewriter';font-variant-ligatures:normal;font-variant-caps:normal;font-variant-numeric:normal;text-align:start;letter-spacing:0px;word-spacing:0px;writing-mode:lr-tb;text-anchor:start;white-space:pre;shape-inside:url(#rect1503);fill:#000000;fill-opacity:1;stroke:none;stroke-width:0.20729px;stroke-linecap:butt;stroke-linejoin:miter;stroke-opacity:1"
     id="path1548" />
  <path
     d="m 187.94663,159.33431 q -4.24349,0 -6.78958,-2.82201 -2.5461,-2.8612 -2.5461,-7.64294 0,-4.78174 2.5461,-7.60376 2.5865,-2.8612 6.91083,-2.8612 4.40514,0 6.95124,2.78282 2.54608,2.78281 2.54608,7.56455 0,4.78175 -2.62692,7.68214 -2.62692,2.9004 -6.99165,2.9004 z m 0.20207,-18.34307 q -2.82899,0 -4.44556,1.92054 -1.61657,1.92053 -1.77822,5.44805 0,0 0,0.50953 0,3.68428 1.57614,5.8008 1.61658,2.07731 4.48599,2.07731 2.95023,0 4.60721,-2.07731 1.69739,-2.11652 1.69739,-5.84 0,-7.83892 -6.14295,-7.83892 z"
     style="font-style:normal;font-variant:normal;font-weight:normal;font-stretch:normal;font-size:50.8px;line-height:52.9166px;font-family:'American Typewriter';-inkscape-font-specification:'American Typewriter';font-variant-ligatures:normal;font-variant-caps:normal;font-variant-numeric:normal;text-align:start;letter-spacing:0px;word-spacing:0px;writing-mode:lr-tb;text-anchor:start;white-space:pre;shape-inside:url(#rect1503);fill:#000000;fill-opacity:1;stroke:none;stroke-width:0.20729px;stroke-linecap:butt;stroke-linejoin:miter;stroke-opacity:1"
     id="path1550" />
  <path
     d="m 210.01276,159.33431 q -4.2435,0 -6.78959,-2.82201 -2.5461,-2.8612 -2.5461,-7.64294 0,-4.78174 2.5461,-7.60376 2.58651,-2.8612 6.91083,-2.8612 4.40514,0 6.95123,2.78282 2.5461,2.78281 2.5461,7.56455 0,4.78175 -2.62692,7.68214 -2.62693,2.9004 -6.99165,2.9004 z m 0.20206,-18.34307 q -2.82899,0 -4.44556,1.92054 -1.61657,1.92053 -1.77823,5.44805 0,0 0,0.50953 0,3.68428 1.57616,5.8008 1.61657,2.07731 4.48598,2.07731 2.95023,0 4.60722,-2.07731 1.69739,-2.11652 1.69739,-5.84 0,-7.83892 -6.14296,-7.83892 z"
     style="font-style:normal;font-variant:normal;font-weight:normal;font-stretch:normal;font-size:50.8px;line-height:52.9166px;font-family:'American Typewriter';-inkscape-font-specification:'American Typewriter';font-variant-ligatures:normal;font-variant-caps:normal;font-variant-numeric:normal;text-align:start;letter-spacing:0px;word-spacing:0px;writing-mode:lr-tb;text-anchor:start;white-space:pre;shape-inside:url(#rect1503);fill:#000000;fill-opacity:1;stroke:none;stroke-width:0.20729px;stroke-linecap:butt;stroke-linejoin:miter;stroke-opacity:1"
     id="path1552" />
  <path
     d="m 229.08823,142.28466 0.0404,12.18952 q 0.0403,1.99893 1.09119,1.99893 0.24248,0 1.01034,-0.19597 0.48498,-0.0784 0.64663,-0.0784 1.33367,0 1.33367,1.33261 0,1.29343 -1.65698,1.29343 -0.64663,0 -2.06112,-0.15678 -1.4145,-0.15678 -2.18237,-0.15678 -0.64662,0 -1.93988,0.15678 -1.29326,0.15678 -1.89947,0.15678 h -0.20207 q -1.6974,0 -1.6974,-1.41101 0,-1.21503 1.37409,-1.21503 0.0808,0 0.2829,0 0.24248,0.0392 0.36373,0.0392 1.01034,0.15677 1.17201,0.15677 0.72745,0 0.88911,-0.58791 0.20207,-0.62712 0.24248,-3.17477 l 0.0403,-2.74361 0.12125,-6.07517 -0.0404,-6.97663 q -0.0403,-1.17583 -0.12124,-1.56778 -0.2829,-0.90147 -1.1316,-0.90147 -0.12125,0 -1.05078,0.15677 -0.44455,0.0784 -0.72745,0.0784 -1.37408,0 -1.37408,-1.25422 0,-1.29342 1.61656,-1.29342 0.44456,0 0.76787,0.0392 l 0.96995,0.11759 q 0.64663,0.0784 1.09118,0.0784 0.40414,0 1.21242,-0.11758 0.80829,-0.15678 1.21243,-0.15678 0.92953,0 0.92953,1.13664 0,0.39195 -0.0403,0.58792 -0.2829,3.01798 -0.2829,8.54442 z"
     style="font-style:normal;font-variant:normal;font-weight:normal;font-stretch:normal;font-size:50.8px;line-height:52.9166px;font-family:'American Typewriter';-inkscape-font-specification:'American Typewriter';font-variant-ligatures:normal;font-variant-caps:normal;font-variant-numeric:normal;text-align:start;letter-spacing:0px;word-spacing:0px;writing-mode:lr-tb;text-anchor:start;white-space:pre;shape-inside:url(#rect1503);fill:#000000;fill-opacity:1;stroke:none;stroke-width:0.20729px;stroke-linecap:butt;stroke-linejoin:miter;stroke-opacity:1"
     id="path1554" />
  <path
     d="m 243.79892,138.4044 q 2.70776,0 4.52639,1.37181 v -0.15677 q 0,-1.4502 1.29326,-1.4502 1.33366,0 1.33366,1.25422 0,0.23517 -0.0808,1.17584 -0.16166,0.78389 -0.16166,1.56778 0,0.47034 0.12124,1.37181 0.16165,0.90148 0.16165,1.37181 0,1.4894 -1.33367,1.4894 -1.29325,0 -1.33366,-1.25423 l -0.0403,-1.29342 q -0.0404,-1.17584 -1.4145,-1.99892 -1.33367,-0.86229 -3.15231,-0.86229 -1.85905,0 -3.11188,0.94068 -1.25285,0.90147 -1.25285,2.27328 0,2.50846 3.55645,2.97879 l 2.34402,0.31356 q 6.87041,0.90147 6.87041,5.52643 0,2.82201 -2.22277,4.58577 -2.22278,1.72456 -5.81964,1.72456 -3.35438,0 -5.81966,-1.84215 0.0404,0.39195 0.0404,0.7447 0,1.41101 -1.37408,1.41101 -1.49533,0 -1.49533,-1.60699 0,0.27437 0.24249,-2.03811 0.0808,-0.54872 0.0808,-1.09745 0,-0.94067 -0.16166,-1.76375 -0.16165,-0.82309 -0.16165,-1.29342 0,-1.37181 1.29325,-1.37181 0.84869,0 1.05077,0.39194 0.24248,0.39194 0.2829,2.07731 0.0403,1.68537 1.81863,2.74362 1.77824,1.05826 4.52639,1.05826 1.98029,0 3.27355,-0.97987 1.29326,-0.97986 1.29326,-2.46925 0,-2.66524 -4.36474,-3.09638 -4.16266,-0.43114 -6.34502,-1.56778 -2.18237,-1.17584 -2.18237,-4.07623 0,-2.74362 2.14195,-4.42899 2.14196,-1.72457 5.57716,-1.72457 z"
     style="font-style:normal;font-variant:normal;font-weight:normal;font-stretch:normal;font-size:50.8px;line-height:52.9166px;font-family:'American Typewriter';-inkscape-font-specification:'American Typewriter';font-variant-ligatures:normal;font-variant-caps:normal;font-variant-numeric:normal;text-align:start;letter-spacing:0px;word-spacing:0px;writing-mode:lr-tb;text-anchor:start;white-space:pre;shape-inside:url(#rect1503);fill:#000000;fill-opacity:1;stroke:none;stroke-width:0.20729px;stroke-linecap:butt;stroke-linejoin:miter;stroke-opacity:1"
     id="path1556" />
  <path
     d="m 255.07443,148.20305 q 0,-1.37181 1.61657,-1.37181 h 6.30462 q 1.61656,0 1.61656,1.33261 0,1.41101 -1.61656,1.41101 H 256.691 q -1.61657,0 -1.61657,-1.37181 z"
     style="font-style:normal;font-variant:normal;font-weight:normal;font-stretch:normal;font-size:50.8px;line-height:52.9166px;font-family:'American Typewriter';-inkscape-font-specification:'American Typewriter';font-variant-ligatures:normal;font-variant-caps:normal;font-variant-numeric:normal;text-align:start;letter-spacing:0px;word-spacing:0px;writing-mode:lr-tb;text-anchor:start;white-space:pre;shape-inside:url(#rect1503);fill:#000000;fill-opacity:1;stroke:none;stroke-width:0.20729px;stroke-linecap:butt;stroke-linejoin:miter;stroke-opacity:1"
     id="path1558" />
  <path
     d="m 285.99119,147.14479 q 0,1.4894 -0.20207,1.84215 -0.20207,0.31355 -1.17201,0.31355 h -12.85172 q -0.52538,0 -0.68704,0.15679 -0.16165,0.11758 -0.16165,0.43114 0,2.93959 1.81864,4.89932 1.81863,1.95973 4.52638,1.95973 1.77823,0 3.23314,-0.94068 1.49533,-0.94066 1.93989,-2.39086 l 0.36372,-1.13665 q 0.28291,-0.94067 1.33367,-0.94067 1.49532,0 1.49532,1.4894 0,2.54765 -2.66733,4.54657 -2.66734,1.95973 -6.06213,1.95973 -4.24349,0 -6.74917,-2.74362 -2.50568,-2.78282 -2.50568,-7.44697 0,-4.78174 2.66734,-7.76053 2.66734,-2.97879 6.95123,-2.97879 3.79894,0 6.26421,2.46926 2.46526,2.46926 2.46526,6.27113 z m -14.67035,-1.01905 q 0,0.54872 0.88911,0.54872 h 9.65899 q 0.8487,0 0.8487,-0.54872 0,-2.07732 -1.61657,-3.60591 -1.61656,-1.52859 -3.79893,-1.52859 -2.2632,0 -4.12224,1.60698 -1.85906,1.56779 -1.85906,3.52752 z"
     style="font-style:normal;font-variant:normal;font-weight:normal;font-stretch:normal;font-size:50.8px;line-height:52.9166px;font-family:'American Typewriter';-inkscape-font-specification:'American Typewriter';font-variant-ligatures:normal;font-variant-caps:normal;font-variant-numeric:normal;text-align:start;letter-spacing:0px;word-spacing:0px;writing-mode:lr-tb;text-anchor:start;white-space:pre;shape-inside:url(#rect1503);fill:#000000;fill-opacity:1;stroke:none;stroke-width:0.20729px;stroke-linecap:butt;stroke-linejoin:miter;stroke-opacity:1"
     id="path1560" />
  <path
     d="m 297.50925,138.4044 q 2.70775,0 4.5264,1.37181 v -0.15677 q 0,-1.4502 1.29324,-1.4502 1.33367,0 1.33367,1.25422 0,0.23517 -0.0808,1.17584 -0.16166,0.78389 -0.16166,1.56778 0,0.47034 0.12124,1.37181 0.16166,0.90148 0.16166,1.37181 0,1.4894 -1.33366,1.4894 -1.29326,0 -1.33367,-1.25423 l -0.0404,-1.29342 q -0.0403,-1.17584 -1.41449,-1.99892 -1.33367,-0.86229 -3.1523,-0.86229 -1.85906,0 -3.11189,0.94068 -1.25285,0.90147 -1.25285,2.27328 0,2.50846 3.55645,2.97879 l 2.34402,0.31356 q 6.87041,0.90147 6.87041,5.52643 0,2.82201 -2.22277,4.58577 -2.22279,1.72456 -5.81965,1.72456 -3.35437,0 -5.81965,-1.84215 0.0404,0.39195 0.0404,0.7447 0,1.41101 -1.37408,1.41101 -1.49532,0 -1.49532,-1.60699 0,0.27437 0.24248,-2.03811 0.0808,-0.54872 0.0808,-1.09745 0,-0.94067 -0.16165,-1.76375 -0.16166,-0.82309 -0.16166,-1.29342 0,-1.37181 1.29325,-1.37181 0.84871,0 1.05078,0.39194 0.24248,0.39194 0.28289,2.07731 0.0404,1.68537 1.81864,2.74362 1.77823,1.05826 4.5264,1.05826 1.98029,0 3.27355,-0.97987 1.29324,-0.97986 1.29324,-2.46925 0,-2.66524 -4.36472,-3.09638 -4.16266,-0.43114 -6.34503,-1.56778 -2.18238,-1.17584 -2.18238,-4.07623 0,-2.74362 2.14196,-4.42899 2.14195,-1.72457 5.57716,-1.72457 z"
     style="font-style:normal;font-variant:normal;font-weight:normal;font-stretch:normal;font-size:50.8px;line-height:52.9166px;font-family:'American Typewriter';-inkscape-font-specification:'American Typewriter';font-variant-ligatures:normal;font-variant-caps:normal;font-variant-numeric:normal;text-align:start;letter-spacing:0px;word-spacing:0px;writing-mode:lr-tb;text-anchor:start;white-space:pre;shape-inside:url(#rect1503);fill:#000000;fill-opacity:1;stroke:none;stroke-width:0.20729px;stroke-linecap:butt;stroke-linejoin:miter;stroke-opacity:1"
     id="path1562" />
</svg>
